RTL/APB_SLAVE/sim_build/test_apb_slave_wrapper--0/dump.vcd
$date
	Mon Oct 31 22:35:24 2022
$end
$version
	Icarus Verilog
$end
$timescale
	1ns
$end
$scope module apb_slave_wrapper $end
$var wire 1 ! ares $end
$var wire 1 " clock $end
$var wire 5 # paddr [4:0] $end
$var wire 1 $ penable $end
$var wire 1 % prot $end
$var wire 1 & psel $end
$var wire 1 ' pstrb $end
$var wire 32 ( pwdata [31:0] $end
$var wire 1 ) pwrite $end
$var wire 1 * pslverror $end
$var wire 1 + pready $end
$var wire 32 , prdata [31:0] $end
$var wire 1 - m_write $end
$var wire 32 . m_wdata [31:0] $end
$var wire 32 / m_rdata [31:0] $end
$var wire 1 0 m_prot $end
$var wire 1 1 m_cs $end
$var wire 5 2 m_addr [4:0] $end
$var integer 32 3 j [31:0] $end
$scope module u_apb_slave $end
$var wire 5 4 apb_addr [4:0] $end
$var wire 1 ! apb_ares $end
$var wire 1 " apb_clock $end
$var wire 1 $ apb_penable $end
$var wire 1 % apb_prot $end
$var wire 1 & apb_psel $end
$var wire 1 ) apb_pwrite $end
$var wire 1 ' apb_strb $end
$var wire 32 5 apb_wdata [31:0] $end
$var wire 1 0 fprot $end
$var wire 1 6 fslverror $end
$var wire 32 7 frdata [31:0] $end
$var wire 1 * apb_slverror $end
$var wire 1 + apb_pready $end
$var wire 1 8 CNTdone $end
$var reg 32 9 apb_rdata [31:0] $end
$var reg 3 : cState [2:0] $end
$var reg 5 ; faddr [4:0] $end
$var reg 1 1 fenable $end
$var reg 32 < fwdata [31:0] $end
$var reg 1 - fwrite $end
$var reg 3 = nState [2:0] $end
$var reg 1 > waitingCNT $end
$scope begin async_proc_state_change $end
$upscope $end
$scope begin error_not_tied_off $end
$upscope $end
$scope begin port_forwarding_proc $end
$scope begin access_state $end
$upscope $end
$scope begin idle_state $end
$upscope $end
$scope begin setup_state $end
$upscope $end
$upscope $end
$scope begin state_computation_proc $end
$scope begin access_state $end
$upscope $end
$scope begin idle_state $end
$upscope $end
$scope begin setup_state $end
$upscope $end
$upscope $end
$scope begin waiting_counter $end
$upscope $end
$upscope $end
$scope module u_rom $end
$var wire 1 ? clk_en $end
$var wire 1 @ internal_clk $end
$var wire 5 A mem_address [4:0] $end
$var wire 1 " mem_clk $end
$var wire 1 1 mem_cs $end
$var wire 1 - mem_op $end
$var wire 32 B mem_wdata [31:0] $end
$var reg 32 C mem_rdata [31:0] $end
$scope begin genblk2 $end
$upscope $end
$scope begin genblk4 $end
$scope begin no_clock_process $end
$upscope $end
$upscope $end
$scope begin mem_init $end
$scope begin mem_image $end
$upscope $end
$scope begin zero_mem $end
$upscope $end
$upscope $end
$scope begin param_check $end
$upscope $end
$upscope $end
$upscope $end
$scope module apb_slave_wrapper $end
$scope module u_rom $end
$var reg 32 D \MEMARRAY[0] [31:0] $end
$upscope $end
$upscope $end
$scope module apb_slave_wrapper $end
$scope module u_rom $end
$var reg 32 E \MEMARRAY[1] [31:0] $end
$upscope $end
$upscope $end
$scope module apb_slave_wrapper $end
$scope module u_rom $end
$var reg 32 F \MEMARRAY[2] [31:0] $end
$upscope $end
$upscope $end
$scope module apb_slave_wrapper $end
$scope module u_rom $end
$var reg 32 G \MEMARRAY[3] [31:0] $end
$upscope $end
$upscope $end
$scope module apb_slave_wrapper $end
$scope module u_rom $end
$var reg 32 H \MEMARRAY[4] [31:0] $end
$upscope $end
$upscope $end
$scope module apb_slave_wrapper $end
$scope module u_rom $end
$var reg 32 I \MEMARRAY[5] [31:0] $end
$upscope $end
$upscope $end
$scope module apb_slave_wrapper $end
$scope module u_rom $end
$var reg 32 J \MEMARRAY[6] [31:0] $end
$upscope $end
$upscope $end
$scope module apb_slave_wrapper $end
$scope module u_rom $end
$var reg 32 K \MEMARRAY[7] [31:0] $end
$upscope $end
$upscope $end
$scope module apb_slave_wrapper $end
$scope module u_rom $end
$var reg 32 L \MEMARRAY[8] [31:0] $end
$upscope $end
$upscope $end
$scope module apb_slave_wrapper $end
$scope module u_rom $end
$var reg 32 M \MEMARRAY[9] [31:0] $end
$upscope $end
$upscope $end
$scope module apb_slave_wrapper $end
$scope module u_rom $end
$var reg 32 N \MEMARRAY[10] [31:0] $end
$upscope $end
$upscope $end
$scope module apb_slave_wrapper $end
$scope module u_rom $end
$var reg 32 O \MEMARRAY[11] [31:0] $end
$upscope $end
$upscope $end
$scope module apb_slave_wrapper $end
$scope module u_rom $end
$var reg 32 P \MEMARRAY[12] [31:0] $end
$upscope $end
$upscope $end
$scope module apb_slave_wrapper $end
$scope module u_rom $end
$var reg 32 Q \MEMARRAY[13] [31:0] $end
$upscope $end
$upscope $end
$scope module apb_slave_wrapper $end
$scope module u_rom $end
$var reg 32 R \MEMARRAY[14] [31:0] $end
$upscope $end
$upscope $end
$scope module apb_slave_wrapper $end
$scope module u_rom $end
$var reg 32 S \MEMARRAY[15] [31:0] $end
$upscope $end
$upscope $end
$scope module apb_slave_wrapper $end
$scope module u_rom $end
$var reg 32 T \MEMARRAY[16] [31:0] $end
$upscope $end
$upscope $end
$scope module apb_slave_wrapper $end
$scope module u_rom $end
$var reg 32 U \MEMARRAY[17] [31:0] $end
$upscope $end
$upscope $end
$scope module apb_slave_wrapper $end
$scope module u_rom $end
$var reg 32 V \MEMARRAY[18] [31:0] $end
$upscope $end
$upscope $end
$scope module apb_slave_wrapper $end
$scope module u_rom $end
$var reg 32 W \MEMARRAY[19] [31:0] $end
$upscope $end
$upscope $end
$scope module apb_slave_wrapper $end
$scope module u_rom $end
$var reg 32 X \MEMARRAY[20] [31:0] $end
$upscope $end
$upscope $end
$scope module apb_slave_wrapper $end
$scope module u_rom $end
$var reg 32 Y \MEMARRAY[21] [31:0] $end
$upscope $end
$upscope $end
$scope module apb_slave_wrapper $end
$scope module u_rom $end
$var reg 32 Z \MEMARRAY[22] [31:0] $end
$upscope $end
$upscope $end
$scope module apb_slave_wrapper $end
$scope module u_rom $end
$var reg 32 [ \MEMARRAY[23] [31:0] $end
$upscope $end
$upscope $end
$scope module apb_slave_wrapper $end
$scope module u_rom $end
$var reg 32 \ \MEMARRAY[24] [31:0] $end
$upscope $end
$upscope $end
$scope module apb_slave_wrapper $end
$scope module u_rom $end
$var reg 32 ] \MEMARRAY[25] [31:0] $end
$upscope $end
$upscope $end
$scope module apb_slave_wrapper $end
$scope module u_rom $end
$var reg 32 ^ \MEMARRAY[26] [31:0] $end
$upscope $end
$upscope $end
$scope module apb_slave_wrapper $end
$scope module u_rom $end
$var reg 32 _ \MEMARRAY[27] [31:0] $end
$upscope $end
$upscope $end
$scope module apb_slave_wrapper $end
$scope module u_rom $end
$var reg 32 ` \MEMARRAY[28] [31:0] $end
$upscope $end
$upscope $end
$scope module apb_slave_wrapper $end
$scope module u_rom $end
$var reg 32 a \MEMARRAY[29] [31:0] $end
$upscope $end
$upscope $end
$scope module apb_slave_wrapper $end
$scope module u_rom $end
$var reg 32 b \MEMARRAY[30] [31:0] $end
$upscope $end
$upscope $end
$scope module apb_slave_wrapper $end
$scope module u_rom $end
$var reg 32 c \MEMARRAY[31] [31:0] $end
$upscope $end
$upscope $end
$enddefinitions $end
#0
$dumpvars
b11001011001110101110111001110001 c
b1111111010101000110000011111000 b
b110001011011001101000110010010 a
b10010010101100101101110000011100 `
b110010100011011100011110111001 _
b1111000001110100001111101100 ^
b1110011111100100111111010001100 ]
b10010100001001001010000000101100 \
b11001001100100011010000110110110 [
b10101001111001011001111001110110 Z
b1010010001110110110110011010101 Y
b1101000101001011111110101100001 X
b1000000011101101010100110001110 W
b11001010111100001001001101100010 V
b11000100000000100011010010110011 U
b10111011001000001111000101010000 T
b10110001010101111100110010101101 S
b10000100000001010110000001111011 R
b10000010011000000110010101000000 Q
b1111111001000110000110100100110 P
b1011111110100011011010011100110 O
b1110011101111011110111110001101 N
b10010110111011001110010010010011 M
b1001100101000100010010111100101 L
b1101110110111100011100010010001 K
b10101100110110000110111110010001 J
b10011000101001100000100010100111 I
b11101011010100011001001100110001 H
b1000111011010000100101111010011 G
b10000101101000111101000110101000 F
b11011000000101111101101000111 E
b11111001111101100111101111000110 D
bx C
b0 B
b0 A
0@
0?
x>
b0 =
b0 <
b0 ;
bx :
b0 9
x8
bx 7
06
b0 5
b0 4
b100000 3
b0 2
01
00
bx /
b0 .
0-
b0 ,
0+
x*
0)
b0 (
0'
0&
0%
0$
b0 #
0"
0!
$end
#5
0*
18
0>
b0 :
1!
#6
08
1>
1"
0!
#11
0"
#16
18
0>
1"
#21
0"
#26
08
1>
1"
#31
0"
#36
b1 =
1)
1&
18
0>
1"
#41
0"
#46
b0 /
b0 7
b0 C
b0 D
11
1+
b10 =
1$
1-
08
1>
b1 :
1"
#51
0"
#56
01
0)
0&
0$
b0 D
0+
b0 =
18
0>
b10 :
1"
#61
0"
#66
b1 =
1)
b1 (
b1 5
b1 #
b1 4
1&
0-
08
1>
b0 :
1"
#71
0"
#76
b1 E
11
1+
1$
b1 .
b1 <
b1 B
1-
b1 2
b1 ;
b1 A
b10 =
18
0>
b1 :
1"
#81
0"
#86
01
0)
0&
b0 #
b0 4
0$
b1 E
0+
b0 =
08
1>
b10 :
1"
#91
0"
#96
b1 =
1)
b10 (
b10 5
b10 #
b10 4
1&
b0 .
b0 <
b0 B
b0 2
b0 ;
b0 A
0-
18
0>
b0 :
1"
#101
0"
#106
b10 F
11
1+
b10 =
1$
b10 .
b10 <
b10 B
1-
b10 2
b10 ;
b10 A
08
1>
b1 :
1"
#111
0"
#116
01
0)
0&
b0 #
b0 4
0$
b10 F
0+
b0 =
18
0>
b10 :
1"
#121
0"
#126
b1 =
1)
b11 (
b11 5
b11 #
b11 4
1&
b0 .
b0 <
b0 B
b0 2
b0 ;
b0 A
0-
08
1>
b0 :
1"
#131
0"
#136
b11 G
11
1+
1$
b11 .
b11 <
b11 B
1-
b11 2
b11 ;
b11 A
b10 =
18
0>
b1 :
1"
#141
0"
#146
01
0)
0&
b0 #
b0 4
0$
b11 G
0+
b0 =
08
1>
b10 :
1"
#151
0"
#156
b1 =
1)
b100 (
b100 5
b100 #
b100 4
1&
b0 .
b0 <
b0 B
b0 2
b0 ;
b0 A
0-
18
0>
b0 :
1"
#161
0"
#166
b100 H
11
1+
b10 =
1$
b100 .
b100 <
b100 B
1-
b100 2
b100 ;
b100 A
08
1>
b1 :
1"
#171
0"
#176
01
0)
0&
b0 #
b0 4
0$
b100 H
0+
b0 =
18
0>
b10 :
1"
#181
0"
#186
b1 =
1)
b101 (
b101 5
b101 #
b101 4
1&
b0 .
b0 <
b0 B
b0 2
b0 ;
b0 A
0-
08
1>
b0 :
1"
#191
0"
#196
b101 I
11
1+
1$
b101 .
b101 <
b101 B
1-
b101 2
b101 ;
b101 A
b10 =
18
0>
b1 :
1"
#201
0"
#206
01
0)
0&
b0 #
b0 4
0$
b101 I
0+
b0 =
08
1>
b10 :
1"
#211
0"
#216
b1 =
1)
b110 (
b110 5
b110 #
b110 4
1&
b0 .
b0 <
b0 B
b0 2
b0 ;
b0 A
0-
18
0>
b0 :
1"
#221
0"
#226
b110 J
11
1+
b10 =
1$
b110 .
b110 <
b110 B
1-
b110 2
b110 ;
b110 A
08
1>
b1 :
1"
#231
0"
#236
01
0)
0&
b0 #
b0 4
0$
b110 J
0+
b0 =
18
0>
b10 :
1"
#241
0"
#246
b1 =
1)
b111 (
b111 5
b111 #
b111 4
1&
b0 .
b0 <
b0 B
b0 2
b0 ;
b0 A
0-
08
1>
b0 :
1"
#251
0"
#256
b111 K
11
1+
1$
b111 .
b111 <
b111 B
1-
b111 2
b111 ;
b111 A
b10 =
18
0>
b1 :
1"
#261
0"
#266
01
0)
0&
b0 #
b0 4
0$
b111 K
0+
b0 =
08
1>
b10 :
1"
#271
0"
#276
b1 =
1)
b1000 (
b1000 5
b1000 #
b1000 4
1&
b0 .
b0 <
b0 B
b0 2
b0 ;
b0 A
0-
18
0>
b0 :
1"
#281
0"
#286
b1000 L
11
1+
b10 =
1$
b1000 .
b1000 <
b1000 B
1-
b1000 2
b1000 ;
b1000 A
08
1>
b1 :
1"
#291
0"
#296
01
0)
0&
b0 #
b0 4
0$
b1000 L
0+
b0 =
18
0>
b10 :
1"
#301
0"
#306
b1 =
1)
b1001 (
b1001 5
b1001 #
b1001 4
1&
b0 .
b0 <
b0 B
b0 2
b0 ;
b0 A
0-
08
1>
b0 :
1"
#311
0"
#316
b1001 M
11
1+
1$
b1001 .
b1001 <
b1001 B
1-
b1001 2
b1001 ;
b1001 A
b10 =
18
0>
b1 :
1"
#321
0"
#326
01
0)
0&
b0 #
b0 4
0$
b1001 M
0+
b0 =
08
1>
b10 :
1"
#331
0"
#336
b1 =
1)
b1010 (
b1010 5
b1010 #
b1010 4
1&
b0 .
b0 <
b0 B
b0 2
b0 ;
b0 A
0-
18
0>
b0 :
1"
#341
0"
#346
b1010 N
11
1+
b10 =
1$
b1010 .
b1010 <
b1010 B
1-
b1010 2
b1010 ;
b1010 A
08
1>
b1 :
1"
#351
0"
#356
01
0)
0&
b0 #
b0 4
0$
b1010 N
0+
b0 =
18
0>
b10 :
1"
#361
0"
#366
b1 =
1)
b1011 (
b1011 5
b1011 #
b1011 4
1&
b0 .
b0 <
b0 B
b0 2
b0 ;
b0 A
0-
08
1>
b0 :
1"
#371
0"
#376
b1011 O
11
1+
1$
b1011 .
b1011 <
b1011 B
1-
b1011 2
b1011 ;
b1011 A
b10 =
18
0>
b1 :
1"
#381
0"
#386
01
0)
0&
b0 #
b0 4
0$
b1011 O
0+
b0 =
08
1>
b10 :
1"
#391
0"
#396
b1 =
1)
b1100 (
b1100 5
b1100 #
b1100 4
1&
b0 .
b0 <
b0 B
b0 2
b0 ;
b0 A
0-
18
0>
b0 :
1"
#401
0"
#406
b1100 P
11
1+
b10 =
1$
b1100 .
b1100 <
b1100 B
1-
b1100 2
b1100 ;
b1100 A
08
1>
b1 :
1"
#411
0"
#416
01
0)
0&
b0 #
b0 4
0$
b1100 P
0+
b0 =
18
0>
b10 :
1"
#421
0"
#426
b1 =
1)
b1101 (
b1101 5
b1101 #
b1101 4
1&
b0 .
b0 <
b0 B
b0 2
b0 ;
b0 A
0-
08
1>
b0 :
1"
#431
0"
#436
b1101 Q
11
1+
1$
b1101 .
b1101 <
b1101 B
1-
b1101 2
b1101 ;
b1101 A
b10 =
18
0>
b1 :
1"
#441
0"
#446
01
0)
0&
b0 #
b0 4
0$
b1101 Q
0+
b0 =
08
1>
b10 :
1"
#451
0"
#456
b1 =
1)
b1110 (
b1110 5
b1110 #
b1110 4
1&
b0 .
b0 <
b0 B
b0 2
b0 ;
b0 A
0-
18
0>
b0 :
1"
#461
0"
#466
b1110 R
11
1+
b10 =
1$
b1110 .
b1110 <
b1110 B
1-
b1110 2
b1110 ;
b1110 A
08
1>
b1 :
1"
#471
0"
#476
01
0)
0&
b0 #
b0 4
0$
b1110 R
0+
b0 =
18
0>
b10 :
1"
#481
0"
#486
b1 =
1)
b1111 (
b1111 5
b1111 #
b1111 4
1&
b0 .
b0 <
b0 B
b0 2
b0 ;
b0 A
0-
08
1>
b0 :
1"
#491
0"
#496
b1111 S
11
1+
1$
b1111 .
b1111 <
b1111 B
1-
b1111 2
b1111 ;
b1111 A
b10 =
18
0>
b1 :
1"
#501
0"
#506
01
0)
0&
b0 #
b0 4
0$
b1111 S
0+
b0 =
08
1>
b10 :
1"
#511
0"
#516
b1 =
1)
b10000 (
b10000 5
b10000 #
b10000 4
1&
b0 .
b0 <
b0 B
b0 2
b0 ;
b0 A
0-
18
0>
b0 :
1"
#521
0"
#526
b10000 T
11
1+
b10 =
1$
b10000 .
b10000 <
b10000 B
1-
b10000 2
b10000 ;
b10000 A
08
1>
b1 :
1"
#531
0"
#536
01
0)
0&
b0 #
b0 4
0$
b10000 T
0+
b0 =
18
0>
b10 :
1"
#541
0"
#546
b1 =
1)
b10001 (
b10001 5
b10001 #
b10001 4
1&
b0 .
b0 <
b0 B
b0 2
b0 ;
b0 A
0-
08
1>
b0 :
1"
#551
0"
#556
b10001 U
11
1+
1$
b10001 .
b10001 <
b10001 B
1-
b10001 2
b10001 ;
b10001 A
b10 =
18
0>
b1 :
1"
#561
0"
#566
01
0)
0&
b0 #
b0 4
0$
b10001 U
0+
b0 =
08
1>
b10 :
1"
#571
0"
#576
b1 =
1)
b10010 (
b10010 5
b10010 #
b10010 4
1&
b0 .
b0 <
b0 B
b0 2
b0 ;
b0 A
0-
18
0>
b0 :
1"
#581
0"
#586
b10010 V
11
1+
b10 =
1$
b10010 .
b10010 <
b10010 B
1-
b10010 2
b10010 ;
b10010 A
08
1>
b1 :
1"
#591
0"
#596
01
0)
0&
b0 #
b0 4
0$
b10010 V
0+
b0 =
18
0>
b10 :
1"
#601
0"
#606
b1 =
1)
b10011 (
b10011 5
b10011 #
b10011 4
1&
b0 .
b0 <
b0 B
b0 2
b0 ;
b0 A
0-
08
1>
b0 :
1"
#611
0"
#616
b10011 W
11
1+
1$
b10011 .
b10011 <
b10011 B
1-
b10011 2
b10011 ;
b10011 A
b10 =
18
0>
b1 :
1"
#621
0"
#626
01
0)
0&
b0 #
b0 4
0$
b10011 W
0+
b0 =
08
1>
b10 :
1"
#631
0"
#636
b1 =
1)
b10100 (
b10100 5
b10100 #
b10100 4
1&
b0 .
b0 <
b0 B
b0 2
b0 ;
b0 A
0-
18
0>
b0 :
1"
#641
0"
#646
b10100 X
11
1+
b10 =
1$
b10100 .
b10100 <
b10100 B
1-
b10100 2
b10100 ;
b10100 A
08
1>
b1 :
1"
#651
0"
#656
01
0)
0&
b0 #
b0 4
0$
b10100 X
0+
b0 =
18
0>
b10 :
1"
#661
0"
#666
b1 =
1)
b10101 (
b10101 5
b10101 #
b10101 4
1&
b0 .
b0 <
b0 B
b0 2
b0 ;
b0 A
0-
08
1>
b0 :
1"
#671
0"
#676
b10101 Y
11
1+
1$
b10101 .
b10101 <
b10101 B
1-
b10101 2
b10101 ;
b10101 A
b10 =
18
0>
b1 :
1"
#681
0"
#686
01
0)
0&
b0 #
b0 4
0$
b10101 Y
0+
b0 =
08
1>
b10 :
1"
#691
0"
#696
b1 =
1)
b10110 (
b10110 5
b10110 #
b10110 4
1&
b0 .
b0 <
b0 B
b0 2
b0 ;
b0 A
0-
18
0>
b0 :
1"
#701
0"
#706
b10110 Z
11
1+
b10 =
1$
b10110 .
b10110 <
b10110 B
1-
b10110 2
b10110 ;
b10110 A
08
1>
b1 :
1"
#711
0"
#716
01
0)
0&
b0 #
b0 4
0$
b10110 Z
0+
b0 =
18
0>
b10 :
1"
#721
0"
#726
b1 =
1)
b10111 (
b10111 5
b10111 #
b10111 4
1&
b0 .
b0 <
b0 B
b0 2
b0 ;
b0 A
0-
08
1>
b0 :
1"
#731
0"
#736
b10111 [
11
1+
1$
b10111 .
b10111 <
b10111 B
1-
b10111 2
b10111 ;
b10111 A
b10 =
18
0>
b1 :
1"
#741
0"
#746
01
0)
0&
b0 #
b0 4
0$
b10111 [
0+
b0 =
08
1>
b10 :
1"
#751
0"
#756
b1 =
1)
b11000 (
b11000 5
b11000 #
b11000 4
1&
b0 .
b0 <
b0 B
b0 2
b0 ;
b0 A
0-
18
0>
b0 :
1"
#761
0"
#766
b11000 \
11
1+
b10 =
1$
b11000 .
b11000 <
b11000 B
1-
b11000 2
b11000 ;
b11000 A
08
1>
b1 :
1"
#771
0"
#776
01
0)
0&
b0 #
b0 4
0$
b11000 \
0+
b0 =
18
0>
b10 :
1"
#781
0"
#786
b1 =
1)
b11001 (
b11001 5
b11001 #
b11001 4
1&
b0 .
b0 <
b0 B
b0 2
b0 ;
b0 A
0-
08
1>
b0 :
1"
#791
0"
#796
b11001 ]
11
1+
1$
b11001 .
b11001 <
b11001 B
1-
b11001 2
b11001 ;
b11001 A
b10 =
18
0>
b1 :
1"
#801
0"
#806
01
0)
0&
b0 #
b0 4
0$
b11001 ]
0+
b0 =
08
1>
b10 :
1"
#811
0"
#816
b1 =
1)
b11010 (
b11010 5
b11010 #
b11010 4
1&
b0 .
b0 <
b0 B
b0 2
b0 ;
b0 A
0-
18
0>
b0 :
1"
#821
0"
#826
b11010 ^
11
1+
b10 =
1$
b11010 .
b11010 <
b11010 B
1-
b11010 2
b11010 ;
b11010 A
08
1>
b1 :
1"
#831
0"
#836
01
0)
0&
b0 #
b0 4
0$
b11010 ^
0+
b0 =
18
0>
b10 :
1"
#841
0"
#846
b1 =
1)
b11011 (
b11011 5
b11011 #
b11011 4
1&
b0 .
b0 <
b0 B
b0 2
b0 ;
b0 A
0-
08
1>
b0 :
1"
#851
0"
#856
b11011 _
11
1+
1$
b11011 .
b11011 <
b11011 B
1-
b11011 2
b11011 ;
b11011 A
b10 =
18
0>
b1 :
1"
#861
0"
#866
01
0)
0&
b0 #
b0 4
0$
b11011 _
0+
b0 =
08
1>
b10 :
1"
#871
0"
#876
b1 =
1)
b11100 (
b11100 5
b11100 #
b11100 4
1&
b0 .
b0 <
b0 B
b0 2
b0 ;
b0 A
0-
18
0>
b0 :
1"
#881
0"
#886
b11100 `
11
1+
b10 =
1$
b11100 .
b11100 <
b11100 B
1-
b11100 2
b11100 ;
b11100 A
08
1>
b1 :
1"
#891
0"
#896
01
0)
0&
b0 #
b0 4
0$
b11100 `
0+
b0 =
18
0>
b10 :
1"
#901
0"
#906
b1 =
1)
b11101 (
b11101 5
b11101 #
b11101 4
1&
b0 .
b0 <
b0 B
b0 2
b0 ;
b0 A
0-
08
1>
b0 :
1"
#911
0"
#916
b11101 a
11
1+
1$
b11101 .
b11101 <
b11101 B
1-
b11101 2
b11101 ;
b11101 A
b10 =
18
0>
b1 :
1"
#921
0"
#926
01
0)
0&
b0 #
b0 4
0$
b11101 a
0+
b0 =
08
1>
b10 :
1"
#931
0"
#936
b1 =
1)
b11110 (
b11110 5
b11110 #
b11110 4
1&
b0 .
b0 <
b0 B
b0 2
b0 ;
b0 A
0-
18
0>
b0 :
1"
#941
0"
#946
b11110 b
11
1+
b10 =
1$
b11110 .
b11110 <
b11110 B
1-
b11110 2
b11110 ;
b11110 A
08
1>
b1 :
1"
#951
0"
#956
01
0)
0&
b0 #
b0 4
0$
b11110 b
0+
b0 =
18
0>
b10 :
1"
#961
0"
#966
b1 =
1)
b11111 (
b11111 5
b11111 #
b11111 4
1&
b0 .
b0 <
b0 B
b0 2
b0 ;
b0 A
0-
08
1>
b0 :
1"
#971
0"
#976
b11111 c
11
1+
1$
b11111 .
b11111 <
b11111 B
1-
b11111 2
b11111 ;
b11111 A
b10 =
18
0>
b1 :
1"
#981
0"
#986
01
0)
0&
b0 #
b0 4
0$
b11111 c
0+
b0 =
08
1>
b10 :
1"
#991
0"
#996
b0 .
b0 <
b0 B
b0 2
b0 ;
b0 A
0-
18
0>
b0 :
1"
#1001
0"
#1006
08
1>
1"
#1011
0"
#1016
18
0>
1"
#1021
0"
#1026
08
1>
1"
#1031
0"
#1036
18
0>
1"
#1041
0"
#1046
08
1>
1"
#1051
0"
#1056
18
0>
1"
#1061
0"
#1066
08
1>
1"
#1071
0"
#1076
18
0>
1"
#1081
0"
#1086
08
1>
1"
#1091
0"
#1096
b1 =
b0 (
b0 5
1&
18
0>
1"
#1101
0"
#1106
11
1+
b10 =
1$
08
1>
b1 :
1"
#1111
0"
#1116
01
0&
0$
0+
b0 =
18
0>
b10 :
1"
#1121
0"
#1126
08
1>
b0 :
1"
#1131
0"
#1136
b1 =
b1 #
b1 4
1&
18
0>
1"
#1141
0"
#1146
b1 /
b1 7
b1 C
11
1+
b10 =
1$
b1 2
b1 ;
b1 A
08
1>
b1 :
1"
#1151
0"
#1156
01
0&
b0 #
b0 4
0$
b1 ,
b1 9
0+
b0 =
18
0>
b10 :
1"
#1161
0"
#1166
b0 ,
b0 9
b0 2
b0 ;
b0 A
08
1>
b0 :
1"
#1171
0"
#1176
b1 =
b10 #
b10 4
1&
18
0>
1"
#1181
0"
#1186
b10 /
b10 7
b10 C
11
1+
b10 =
1$
b10 2
b10 ;
b10 A
08
1>
b1 :
1"
#1191
0"
#1196
01
0&
b0 #
b0 4
0$
b10 ,
b10 9
0+
b0 =
18
0>
b10 :
1"
#1201
0"
#1206
b0 ,
b0 9
b0 2
b0 ;
b0 A
08
1>
b0 :
1"
#1211
0"
#1216
b1 =
b11 #
b11 4
1&
18
0>
1"
#1221
0"
#1226
b11 /
b11 7
b11 C
11
1+
b10 =
1$
b11 2
b11 ;
b11 A
08
1>
b1 :
1"
#1231
0"
#1236
01
0&
b0 #
b0 4
0$
b11 ,
b11 9
0+
b0 =
18
0>
b10 :
1"
#1241
0"
#1246
b0 ,
b0 9
b0 2
b0 ;
b0 A
08
1>
b0 :
1"
#1251
0"
#1256
b1 =
b100 #
b100 4
1&
18
0>
1"
#1261
0"
#1266
b100 /
b100 7
b100 C
11
1+
b10 =
1$
b100 2
b100 ;
b100 A
08
1>
b1 :
1"
#1271
0"
#1276
01
0&
b0 #
b0 4
0$
b100 ,
b100 9
0+
b0 =
18
0>
b10 :
1"
#1281
0"
#1286
b0 ,
b0 9
b0 2
b0 ;
b0 A
08
1>
b0 :
1"
#1291
0"
#1296
b1 =
b101 #
b101 4
1&
18
0>
1"
#1301
0"
#1306
b101 /
b101 7
b101 C
11
1+
b10 =
1$
b101 2
b101 ;
b101 A
08
1>
b1 :
1"
#1311
0"
#1316
01
0&
b0 #
b0 4
0$
b101 ,
b101 9
0+
b0 =
18
0>
b10 :
1"
#1321
0"
#1326
b0 ,
b0 9
b0 2
b0 ;
b0 A
08
1>
b0 :
1"
#1331
0"
#1336
b1 =
b110 #
b110 4
1&
18
0>
1"
#1341
0"
#1346
b110 /
b110 7
b110 C
11
1+
b10 =
1$
b110 2
b110 ;
b110 A
08
1>
b1 :
1"
#1351
0"
#1356
01
0&
b0 #
b0 4
0$
b110 ,
b110 9
0+
b0 =
18
0>
b10 :
1"
#1361
0"
#1366
b0 ,
b0 9
b0 2
b0 ;
b0 A
08
1>
b0 :
1"
#1371
0"
#1376
b1 =
b111 #
b111 4
1&
18
0>
1"
#1381
0"
#1386
b111 /
b111 7
b111 C
11
1+
b10 =
1$
b111 2
b111 ;
b111 A
08
1>
b1 :
1"
#1391
0"
#1396
01
0&
b0 #
b0 4
0$
b111 ,
b111 9
0+
b0 =
18
0>
b10 :
1"
#1401
0"
#1406
b0 ,
b0 9
b0 2
b0 ;
b0 A
08
1>
b0 :
1"
#1411
0"
#1416
b1 =
b1000 #
b1000 4
1&
18
0>
1"
#1421
0"
#1426
b1000 /
b1000 7
b1000 C
11
1+
b10 =
1$
b1000 2
b1000 ;
b1000 A
08
1>
b1 :
1"
#1431
0"
#1436
01
0&
b0 #
b0 4
0$
b1000 ,
b1000 9
0+
b0 =
18
0>
b10 :
1"
#1441
0"
#1446
b0 ,
b0 9
b0 2
b0 ;
b0 A
08
1>
b0 :
1"
#1451
0"
#1456
b1 =
b1001 #
b1001 4
1&
18
0>
1"
#1461
0"
#1466
b1001 /
b1001 7
b1001 C
11
1+
b10 =
1$
b1001 2
b1001 ;
b1001 A
08
1>
b1 :
1"
#1471
0"
#1476
01
0&
b0 #
b0 4
0$
b1001 ,
b1001 9
0+
b0 =
18
0>
b10 :
1"
#1481
0"
#1486
b0 ,
b0 9
b0 2
b0 ;
b0 A
08
1>
b0 :
1"
#1491
0"
#1496
b1 =
b1010 #
b1010 4
1&
18
0>
1"
#1501
0"
#1506
b1010 /
b1010 7
b1010 C
11
1+
b10 =
1$
b1010 2
b1010 ;
b1010 A
08
1>
b1 :
1"
#1511
0"
#1516
01
0&
b0 #
b0 4
0$
b1010 ,
b1010 9
0+
b0 =
18
0>
b10 :
1"
#1521
0"
#1526
b0 ,
b0 9
b0 2
b0 ;
b0 A
08
1>
b0 :
1"
#1531
0"
#1536
b1 =
b1011 #
b1011 4
1&
18
0>
1"
#1541
0"
#1546
b1011 /
b1011 7
b1011 C
11
1+
b10 =
1$
b1011 2
b1011 ;
b1011 A
08
1>
b1 :
1"
#1551
0"
#1556
01
0&
b0 #
b0 4
0$
b1011 ,
b1011 9
0+
b0 =
18
0>
b10 :
1"
#1561
0"
#1566
b0 ,
b0 9
b0 2
b0 ;
b0 A
08
1>
b0 :
1"
#1571
0"
#1576
b1 =
b1100 #
b1100 4
1&
18
0>
1"
#1581
0"
#1586
b1100 /
b1100 7
b1100 C
11
1+
b10 =
1$
b1100 2
b1100 ;
b1100 A
08
1>
b1 :
1"
#1591
0"
#1596
01
0&
b0 #
b0 4
0$
b1100 ,
b1100 9
0+
b0 =
18
0>
b10 :
1"
#1601
0"
#1606
b0 ,
b0 9
b0 2
b0 ;
b0 A
08
1>
b0 :
1"
#1611
0"
#1616
b1 =
b1101 #
b1101 4
1&
18
0>
1"
#1621
0"
#1626
b1101 /
b1101 7
b1101 C
11
1+
b10 =
1$
b1101 2
b1101 ;
b1101 A
08
1>
b1 :
1"
#1631
0"
#1636
01
0&
b0 #
b0 4
0$
b1101 ,
b1101 9
0+
b0 =
18
0>
b10 :
1"
#1641
0"
#1646
b0 ,
b0 9
b0 2
b0 ;
b0 A
08
1>
b0 :
1"
#1651
0"
#1656
b1 =
b1110 #
b1110 4
1&
18
0>
1"
#1661
0"
#1666
b1110 /
b1110 7
b1110 C
11
1+
b10 =
1$
b1110 2
b1110 ;
b1110 A
08
1>
b1 :
1"
#1671
0"
#1676
01
0&
b0 #
b0 4
0$
b1110 ,
b1110 9
0+
b0 =
18
0>
b10 :
1"
#1681
0"
#1686
b0 ,
b0 9
b0 2
b0 ;
b0 A
08
1>
b0 :
1"
#1691
0"
#1696
b1 =
b1111 #
b1111 4
1&
18
0>
1"
#1701
0"
